<?xml version="1.0" encoding="utf-8"?>
<!-- Generator: Adobe Illustrator 19.1.0, SVG Export Plug-In . SVG Version: 6.00 Build 0)  -->
<svg version="1.1" xmlns="http://www.w3.org/2000/svg" xmlns:xlink="http://www.w3.org/1999/xlink" x="0px" y="0px"
	 viewBox="0 0 48 48" style="enable-background:new 0 0 48 48;" xml:space="preserve">
<style type="text/css">
	.st0{fill:none;stroke:#000000;stroke-width:2;stroke-linecap:round;stroke-miterlimit:10;}
	.st1{fill:none;stroke:#000000;stroke-width:3.5;stroke-linecap:round;stroke-linejoin:round;stroke-miterlimit:10;}
	.st2{fill:none;stroke:#000000;stroke-width:2;stroke-linecap:round;stroke-linejoin:round;stroke-miterlimit:10;}
	.st3{fill-rule:evenodd;clip-rule:evenodd;fill:#040000;}
	
		.st4{fill-rule:evenodd;clip-rule:evenodd;fill:none;stroke:#040000;stroke-width:4;stroke-linecap:round;stroke-linejoin:round;stroke-miterlimit:10;}
	
		.st5{fill-rule:evenodd;clip-rule:evenodd;fill:none;stroke:#040000;stroke-width:2;stroke-linecap:round;stroke-linejoin:round;stroke-miterlimit:10;}
	.st6{fill:#1D1D1B;}
	.st7{fill:#040000;}
</style>
<g id="レイヤー_1">
	<g id="XMLID_857_">
		<g>
			<path d="M48,20.6C48,9.9,37.2,1.1,24,1.1C10.8,1.1,0,9.9,0,20.6c0,9.6,8.5,17.7,20.1,19.2c0.8,0.2,1.8,0.5,2.1,1.2
				c0.2,0.6,0.2,1.6,0.1,2.2c0,0-0.3,1.7-0.3,2.1c-0.1,0.6-0.5,2.4,2.1,1.3c2.6-1.1,13.8-8.1,18.9-13.9h0C46.3,28.8,48,24.9,48,20.6
				z M14.6,27H9.8c-0.7,0-1.3-0.6-1.3-1.3v-9.5c0-0.7,0.6-1.3,1.3-1.3c0.7,0,1.3,0.6,1.3,1.3v8.3h3.5c0.7,0,1.3,0.6,1.3,1.3
				C15.9,26.4,15.3,27,14.6,27z M19.5,25.7c0,0.7-0.6,1.3-1.3,1.3c-0.7,0-1.3-0.6-1.3-1.3v-9.5c0-0.7,0.6-1.3,1.3-1.3
				c0.7,0,1.3,0.6,1.3,1.3V25.7z M31,25.7c0,0.5-0.3,1-0.9,1.2C30,27,29.9,27,29.8,27c-0.4,0-0.8-0.2-1-0.5l-4.9-6.7v5.9
				c0,0.7-0.6,1.3-1.3,1.3c-0.7,0-1.3-0.6-1.3-1.3v-9.5c0-0.5,0.3-1,0.9-1.2c0.1,0,0.3-0.1,0.4-0.1c0.4,0,0.8,0.2,1,0.5l4.9,6.7
				v-5.9c0-0.7,0.6-1.3,1.3-1.3c0.7,0,1.3,0.6,1.3,1.3V25.7z M38.7,19.7c0.7,0,1.3,0.6,1.3,1.3c0,0.7-0.6,1.3-1.3,1.3h-3.5v2.3h3.5
				c0.7,0,1.3,0.6,1.3,1.3c0,0.7-0.6,1.3-1.3,1.3H34c-0.7,0-1.3-0.6-1.3-1.3V21c0,0,0,0,0,0c0,0,0,0,0,0v-4.8c0-0.7,0.6-1.3,1.3-1.3
				h4.8c0.7,0,1.3,0.6,1.3,1.3c0,0.7-0.6,1.3-1.3,1.3h-3.5v2.3H38.7z"/>
		</g>
	</g>
</g>
<g id="レイヤー_2">
</g>
</svg>
