<?xml version="1.0" encoding="utf-8"?>
<!-- Generator: Adobe Illustrator 19.1.0, SVG Export Plug-In . SVG Version: 6.00 Build 0)  -->
<svg version="1.1" xmlns="http://www.w3.org/2000/svg" xmlns:xlink="http://www.w3.org/1999/xlink" x="0px" y="0px"
	 viewBox="0 0 48 48" style="enable-background:new 0 0 48 48;" xml:space="preserve">
<style type="text/css">
	.st0{fill:none;stroke:#000000;stroke-width:2;stroke-linecap:round;stroke-miterlimit:10;}
	.st1{fill:none;stroke:#000000;stroke-width:3.5;stroke-linecap:round;stroke-linejoin:round;stroke-miterlimit:10;}
	.st2{fill:none;stroke:#000000;stroke-width:2;stroke-linecap:round;stroke-linejoin:round;stroke-miterlimit:10;}
	.st3{fill-rule:evenodd;clip-rule:evenodd;fill:#040000;}
	
		.st4{fill-rule:evenodd;clip-rule:evenodd;fill:none;stroke:#040000;stroke-width:4;stroke-linecap:round;stroke-linejoin:round;stroke-miterlimit:10;}
	
		.st5{fill-rule:evenodd;clip-rule:evenodd;fill:none;stroke:#040000;stroke-width:2;stroke-linecap:round;stroke-linejoin:round;stroke-miterlimit:10;}
	.st6{fill:#1D1D1B;}
	.st7{fill:#040000;}
</style>
<g id="レイヤー_1">
	<path id="twitter_1_" class="st3" d="M32,4.5c4.2-0.2,6.4,1.2,8.4,3.1c1.6-0.1,3.8-1.1,5-1.7c0.4-0.2,0.8-0.4,1.2-0.7
		C46,7.2,45,8.7,43.5,9.9c-0.3,0.3-0.7,0.6-1.1,0.8c0,0,0,0,0,0c2.1,0,3.9-1,5.6-1.5c-0.9,1.4-2.1,2.8-3.4,3.9
		c-0.5,0.4-1,0.8-1.5,1.2c0,2.3,0,4.4-0.5,6.3c-2.5,11.1-9,18.6-19.3,21.8c-3.7,1.2-9.7,1.6-13.9,0.6c-2.1-0.5-4-1.1-5.8-1.9
		c-1-0.4-1.9-0.9-2.8-1.4C0.6,39.4,0.3,39.2,0,39c1,0,2.1,0.3,3.1,0.1c1-0.2,1.9-0.1,2.8-0.3c2.2-0.5,4.2-1.1,5.9-2.1
		c0.8-0.5,2.1-1.1,2.7-1.7c-1.1,0-2.1-0.2-2.9-0.5c-3.2-1.1-5-3.2-6.2-6.3c1,0.1,3.7,0.4,4.4-0.2c-1.2-0.1-2.4-0.8-3.2-1.3
		c-2.6-1.6-4.7-4.3-4.6-8.4c0.3,0.2,0.7,0.3,1,0.5C3.5,19,4.2,19.1,5,19.3c0.3,0.1,1,0.3,1.3,0.1c0,0,0,0,0,0
		c-0.5-0.6-1.3-1-1.8-1.6c-1.6-2-3.2-5.2-2.2-8.9c0.2-1,0.6-1.8,1.1-2.6c0,0,0,0,0,0c0.3,0.6,1.1,1,1.1,1.6c4.8,4.2,8.3,6.5,14.7,8
		c1.3,0.3,2.8,0.6,4.4,0.6c-0.4-1.3-0.3-3.4,0-4.6c0.9-3.1,2.8-5.4,5.6-6.6C30.1,5,31,4.7,32,4.5z"/>
</g>
<g id="レイヤー_2">
</g>
</svg>
