<?xml version="1.0" encoding="utf-8"?>
<!-- Generator: Adobe Illustrator 19.1.0, SVG Export Plug-In . SVG Version: 6.00 Build 0)  -->
<svg version="1.1" xmlns="http://www.w3.org/2000/svg" xmlns:xlink="http://www.w3.org/1999/xlink" x="0px" y="0px"
	 viewBox="0 0 48 48" style="enable-background:new 0 0 48 48;" xml:space="preserve">
<style type="text/css">
	.st0{fill:none;stroke:#000000;stroke-width:2;stroke-linecap:round;stroke-miterlimit:10;}
	.st1{fill:none;stroke:#000000;stroke-width:3.5;stroke-linecap:round;stroke-linejoin:round;stroke-miterlimit:10;}
	.st2{fill:none;stroke:#000000;stroke-width:2;stroke-linecap:round;stroke-linejoin:round;stroke-miterlimit:10;}
	.st3{fill-rule:evenodd;clip-rule:evenodd;fill:#040000;}
	
		.st4{fill-rule:evenodd;clip-rule:evenodd;fill:none;stroke:#040000;stroke-width:4;stroke-linecap:round;stroke-linejoin:round;stroke-miterlimit:10;}
	
		.st5{fill-rule:evenodd;clip-rule:evenodd;fill:none;stroke:#040000;stroke-width:2;stroke-linecap:round;stroke-linejoin:round;stroke-miterlimit:10;}
	.st6{fill:#1D1D1B;}
	.st7{fill:#040000;}
</style>
<g id="レイヤー_1">
	<g id="XMLID_3_">
		<path id="XMLID_6_" d="M34.8,0c0.6,0,1.1,0.2,1.6,0.7c0.9,0.9,0.9,2.3,0,3.1L16.2,24l20.2,20.2c0.9,0.9,0.9,2.3,0,3.1
			c-0.9,0.9-2.3,0.9-3.1,0L11.7,25.7c-1-1-1-2.5,0-3.5L33.3,0.7C33.7,0.2,34.3,0,34.8,0z"/>
	</g>
</g>
<g id="レイヤー_2">
</g>
</svg>
