<?xml version="1.0" encoding="utf-8"?>
<!-- Generator: Adobe Illustrator 19.1.0, SVG Export Plug-In . SVG Version: 6.00 Build 0)  -->
<svg version="1.1" xmlns="http://www.w3.org/2000/svg" xmlns:xlink="http://www.w3.org/1999/xlink" x="0px" y="0px"
	 viewBox="0 0 48 48" style="enable-background:new 0 0 48 48;" xml:space="preserve">
<style type="text/css">
	.st0{fill:none;stroke:#000000;stroke-width:2;stroke-linecap:round;stroke-miterlimit:10;}
	.st1{fill:none;stroke:#000000;stroke-width:3.5;stroke-linecap:round;stroke-linejoin:round;stroke-miterlimit:10;}
	.st2{fill:none;stroke:#000000;stroke-width:2;stroke-linecap:round;stroke-linejoin:round;stroke-miterlimit:10;}
	.st3{fill-rule:evenodd;clip-rule:evenodd;fill:#040000;}
	
		.st4{fill-rule:evenodd;clip-rule:evenodd;fill:none;stroke:#040000;stroke-width:4;stroke-linecap:round;stroke-linejoin:round;stroke-miterlimit:10;}
	
		.st5{fill-rule:evenodd;clip-rule:evenodd;fill:none;stroke:#040000;stroke-width:2;stroke-linecap:round;stroke-linejoin:round;stroke-miterlimit:10;}
	.st6{fill:#1D1D1B;}
	.st7{fill:#040000;}
</style>
<g id="レイヤー_1">
	<path id="SHARE_1_" class="st3" d="M45.2,16.6L45.2,16.6c-1.5,0-2.8-1.2-2.8-2.8V9.5L28.7,23.2l0,0c-0.5,0.5-1.2,0.8-1.9,0.8
		c-1.5,0-2.8-1.2-2.8-2.8c0-0.7,0.3-1.4,0.8-1.9l0,0L38.5,5.5h-4.4c-1.5,0-2.8-1.2-2.8-2.8c0-1.5,1.2-2.8,2.8-2.8h11.1
		C46.8,0,48,1.2,48,2.8v11.1C48,15.4,46.8,16.6,45.2,16.6z M23.1,5.5L23.1,5.5H5.5v36.9h36.9v-2.8V24.9l0,0v-6.3
		c0.8,0.5,1.8,0.8,2.8,0.8c1,0,2-0.3,2.8-0.8v8.2l0,0v18.5c0,1.5-1.2,2.8-2.8,2.8H2.8C1.2,48,0,46.8,0,45.2V2.8C0,1.2,1.2,0,2.8,0
		h20.3l0,0h6.3c-0.5,0.8-0.8,1.8-0.8,2.8c0,1,0.3,2,0.8,2.8H23.1z"/>
</g>
<g id="レイヤー_2">
</g>
</svg>
