<?xml version="1.0" encoding="utf-8"?>
<!-- Generator: Adobe Illustrator 19.1.0, SVG Export Plug-In . SVG Version: 6.00 Build 0)  -->
<svg version="1.1" xmlns="http://www.w3.org/2000/svg" xmlns:xlink="http://www.w3.org/1999/xlink" x="0px" y="0px"
	 viewBox="0 0 48 48" style="enable-background:new 0 0 48 48;" xml:space="preserve">
<style type="text/css">
	.st0{fill:none;stroke:#000000;stroke-width:2;stroke-linecap:round;stroke-miterlimit:10;}
	.st1{fill:none;stroke:#000000;stroke-width:3.5;stroke-linecap:round;stroke-linejoin:round;stroke-miterlimit:10;}
	.st2{fill:none;stroke:#000000;stroke-width:2;stroke-linecap:round;stroke-linejoin:round;stroke-miterlimit:10;}
	.st3{fill-rule:evenodd;clip-rule:evenodd;fill:#040000;}
	
		.st4{fill-rule:evenodd;clip-rule:evenodd;fill:none;stroke:#040000;stroke-width:4;stroke-linecap:round;stroke-linejoin:round;stroke-miterlimit:10;}
	
		.st5{fill-rule:evenodd;clip-rule:evenodd;fill:none;stroke:#040000;stroke-width:2;stroke-linecap:round;stroke-linejoin:round;stroke-miterlimit:10;}
	.st6{fill:#1D1D1B;}
	.st7{fill:#040000;}
</style>
<g id="レイヤー_1">
	<path d="M27.1,24l19-19c0.9-0.9,0.9-2.3,0-3.1S43.9,1,43,1.9l-19,19L5,1.9C4.1,1,2.7,1,1.9,1.9S1,4.1,1.9,5l19,19l-19,19
		c-0.9,0.9-0.9,2.3,0,3.1c0.4,0.4,1,0.6,1.6,0.6s1.1-0.2,1.6-0.6l19-19l19,19c0.4,0.4,1,0.6,1.6,0.6s1.1-0.2,1.6-0.6
		c0.9-0.9,0.9-2.3,0-3.1L27.1,24z"/>
</g>
<g id="レイヤー_2">
</g>
</svg>
